Paul 32 California 20000
Allen 25 Texas 15000
Teddy 23 Norway 20000
Mark 25 Rich-Mond 65000
Peter 40 Chicago 90000
Mary 35 NewYork 70000
Tim 28 Arizona 100000
Louis 20 Chicago 150000
May6 50 Washington 15000
Jay6 28 Houston 110000
Ali6 60 Paris 75000
Alex6 40 Germany 80000
Paul6 32 California 20000
Allen6 25 Texas 150000
Teddy6 23 Norway 20000
Mark6 25 Rich-Mond 65000
Peter6 40 Chicago 60000
Mary6 35 NewYork 70000
Tim 28 Arizona 100000
Louis 20 Chicago 190000
May 50 Washington 95000
Jay 28 Houston 100000
Ali 60 Paris 75000
Alex 40 Germany 85000
Paul 32 California 24000
Allen 25 Texas 15000
Teddy 23 Norway 20000
Mark 25 Rich-Mond 68000
Peter 40 Chicago 90000
Mary 35 NewYork 70000
Tim 28 Arizona 100000
Louis 20 Chicago 150000
May 50 Washington 195000
Jay 28 Houston 100000
Ali 60 Paris 75000
Alex 40 Germany 80000
Paul 32 California 20000
Allen 25 Texas 15000
Teddy 23 Norway 20000
Mark 25 Rich-Mond 65000
Peter 40 Chicago 90000
Mary 35 NewYork 700000
Tim 28 Arizona 100000
Louis 20 Chicago 190000
May 50 Washington 95000
Jay 28 Houston 100000
Ali 60 Paris 75000
Alex 40 Germany 80000
Paul 32 California 29000
Allen 25 Texas 15000
Teddy 23 Norway 20000
Mark 25 Rich-Mond 65000
Peter 40 Chicago 90000
Mary 35 NewYork 70000
Tim 28 Arizona 100000
Louis 20 Chicago 158000
May1 50 Washington 95000
Jay1 28 Houston 100000
Ali1 60 Paris 75000
Alex1 40 Germany 83000
Paul1 32 California 26000
Allen 25 Texas 15000
Teddy 23 Norway 20000
Mark 25 Rich-Mond 65000
Peter 40 Chicago 97000
Mary 35 NewYork 70000
Tim 28 Arizona 101000
Louis 20 Chicago 150000
May 50 Washington 94000
Jay 28 Houston 140000
Ali2 60 Paris 95000
Alex2 40 Germany 88000
Mary2 35 NewYork 70000
Tim2 28 Arizona 100000
Louis2 20 Chicago 150000
May2 50 Washington 15000
Jay2 28 Houston 110000
Ali2 60 Paris 75000
Alex2 40 Germany 80000
Paul 32 California 20000
Allen 25 Texas 150000
Teddy 23 Norway 20000
Mark 25 Rich-Mond 65000
Peter 40 Chicago 60000
Mary 35 NewYork 70000
Tim 28 Arizona 100000
Louis 20 Chicago 190000
May 50 Washington 95000
Jay3 28 Houston 100000
Ali3 60 Paris 75000
Alex3 40 Germany 85000
Paul3 32 California 24000
Allen3 25 Texas 15000
Teddy3 23 Norway 20000
Mark3 25 Rich-Mond 68000
Peter3 40 Chicago 90000
Mary4 35 NewYork 70000
Tim5 28 Arizona 100000
Louis5 20 Chicago 150000
May5 50 Washington 195000
Jay5 28 Houston 100000
Ali5 60 Paris 75000
Alex5 40 Germany 80000
Paul5 32 California 20000
Paul 32 California 20000
Allen 25 Texas 15000
Teddy 23 Norway 20000
Mark 25 Rich-Mond 65000
Peter 40 Chicago 90000
Mary 35 NewYork 70000
Tim 28 Arizona 100000
Louis 20 Chicago 150000
May6 50 Washington 15000
Jay6 28 Houston 110000
Ali6 60 Paris 75000
Alex6 40 Germany 80000
Paul6 32 California 20000
Allen6 25 Texas 150000
Teddy6 23 Norway 20000
Mark6 25 Rich-Mond 65000
Peter6 40 Chicago 60000
Mary6 35 NewYork 70000
Tim 28 Arizona 100000
Louis 20 Chicago 190000
May 50 Washington 95000
Jay 28 Houston 100000
Ali 60 Paris 75000
Alex 40 Germany 85000
Paul 32 California 24000
Allen 25 Texas 15000
Teddy 23 Norway 20000
Mark 25 Rich-Mond 68000
Peter 40 Chicago 90000
Mary 35 NewYork 70000
Tim 28 Arizona 100000
Louis 20 Chicago 150000
May 50 Washington 195000
Jay 28 Houston 100000
Ali 60 Paris 75000
Alex 40 Germany 80000
Paul 32 California 20000
Allen 25 Texas 15000
Teddy 23 Norway 20000
Mark 25 Rich-Mond 65000
Peter 40 Chicago 90000
Mary 35 NewYork 700000
Tim 28 Arizona 100000
Louis 20 Chicago 190000
May 50 Washington 95000
Jay 28 Houston 100000
Ali 60 Paris 75000
Alex 40 Germany 80000
Paul 32 California 29000
Allen 25 Texas 15000
Teddy 23 Norway 20000
Mark 25 Rich-Mond 65000
Peter 40 Chicago 90000
Mary 35 NewYork 70000
Tim 28 Arizona 100000
Louis 20 Chicago 158000
May1 50 Washington 95000
Jay1 28 Houston 100000
Ali1 60 Paris 75000
Alex1 40 Germany 83000
Paul1 32 California 26000
Allen 25 Texas 15000
Teddy 23 Norway 20000
Mark 25 Rich-Mond 65000
Peter 40 Chicago 97000
Mary 35 NewYork 70000
Tim 28 Arizona 101000
Louis 20 Chicago 150000
May 50 Washington 94000
Jay 28 Houston 140000
Ali2 60 Paris 95000
Alex2 40 Germany 88000
Mary2 35 NewYork 70000
Tim2 28 Arizona 100000
Louis2 20 Chicago 150000
May2 50 Washington 15000
Jay2 28 Houston 110000
Ali2 60 Paris 75000
Alex2 40 Germany 80000
Paul 32 California 20000
Allen 25 Texas 150000
Teddy 23 Norway 20000
Mark 25 Rich-Mond 65000
Peter 40 Chicago 60000
Mary 35 NewYork 70000
Tim 28 Arizona 100000
Louis 20 Chicago 190000
May 50 Washington 95000
Jay3 28 Houston 100000
Ali3 60 Paris 75000
Alex3 40 Germany 85000
Paul3 32 California 24000
Allen3 25 Texas 15000
Teddy3 23 Norway 20000
Mark3 25 Rich-Mond 68000
Peter3 40 Chicago 90000
Mary4 35 NewYork 70000
Tim5 28 Arizona 100000
Louis5 20 Chicago 150000
May5 50 Washington 195000
Jay5 28 Houston 100000
Ali5 60 Paris 75000
Alex5 40 Germany 80000
Paul5 32 California 20000
Paul 32 California 20000
Allen 25 Texas 15000
Teddy 23 Norway 20000
Mark 25 Rich-Mond 65000
Peter 40 Chicago 90000
Mary 35 NewYork 70000
Tim 28 Arizona 100000
Louis 20 Chicago 150000
May6 50 Washington 15000
Jay6 28 Houston 110000
Ali6 60 Paris 75000
Alex6 40 Germany 80000
Paul6 32 California 20000
Allen6 25 Texas 150000
Teddy6 23 Norway 20000
Mark6 25 Rich-Mond 65000
Peter6 40 Chicago 60000
Mary6 35 NewYork 70000
Tim 28 Arizona 100000
Louis 20 Chicago 190000
May 50 Washington 95000
Jay 28 Houston 100000
Ali 60 Paris 75000
Alex 40 Germany 85000
Paul 32 California 24000
Allen 25 Texas 15000
Teddy 23 Norway 20000
Mark 25 Rich-Mond 68000
Peter 40 Chicago 90000
Mary 35 NewYork 70000
Tim 28 Arizona 100000
Louis 20 Chicago 150000
May 50 Washington 195000
Jay 28 Houston 100000
Ali 60 Paris 75000
Alex 40 Germany 80000
Paul 32 California 20000
Allen 25 Texas 15000
Teddy 23 Norway 20000
Mark 25 Rich-Mond 65000
Peter 40 Chicago 90000
Mary 35 NewYork 700000
Tim 28 Arizona 100000
Louis 20 Chicago 190000
May 50 Washington 95000
Jay 28 Houston 100000
Ali 60 Paris 75000
Alex 40 Germany 80000
Paul 32 California 29000
Allen 25 Texas 15000
Teddy 23 Norway 20000
Mark 25 Rich-Mond 65000
Peter 40 Chicago 90000
Mary 35 NewYork 70000
Tim 28 Arizona 100000
Louis 20 Chicago 158000
May1 50 Washington 95000
Jay1 28 Houston 100000
Ali1 60 Paris 75000
Alex1 40 Germany 83000
Paul1 32 California 26000
Allen 25 Texas 15000
Teddy 23 Norway 20000
Mark 25 Rich-Mond 65000
Peter 40 Chicago 97000
Mary 35 NewYork 70000
Tim 28 Arizona 101000
Louis 20 Chicago 150000
May 50 Washington 94000
Jay 28 Houston 140000
Ali2 60 Paris 95000
Alex2 40 Germany 88000
Mary2 35 NewYork 70000
Tim2 28 Arizona 100000
Louis2 20 Chicago 150000
May2 50 Washington 15000
Jay2 28 Houston 110000
Ali2 60 Paris 75000
Alex2 40 Germany 80000
Paul 32 California 20000
Allen 25 Texas 150000
Teddy 23 Norway 20000
Mark 25 Rich-Mond 65000
Peter 40 Chicago 60000
Mary 35 NewYork 70000
Tim 28 Arizona 100000
Louis 20 Chicago 190000
May 50 Washington 95000
Jay3 28 Houston 100000
Ali3 60 Paris 75000
Alex3 40 Germany 85000
Paul3 32 California 24000
Allen3 25 Texas 15000
Teddy3 23 Norway 20000
Mark3 25 Rich-Mond 68000
Peter3 40 Chicago 90000
Mary4 35 NewYork 70000
Tim5 28 Arizona 100000
Louis5 20 Chicago 150000
May5 50 Washington 195000
Jay5 28 Houston 100000
Ali5 60 Paris 75000
Alex5 40 Germany 80000
Paul5 32 California 20000
